{
    "coming": [{
        "id": 346765,
        "img": "http://p0.meituan.net/w.h/movie/b9784931b6212e633978298fd827142b316254.jpg",
        "wish": 5072,
        "wishst": 0,
        "nm": "小飞象",
        "comingTitle": "3月29日 周五"
    }, {
        "id": 1238885,
        "img": "http://p1.meituan.net/w.h/movie/0ff8fc5895097c4ea78dc4bbe9fef672322161.jpg",
        "wish": 4631,
        "wishst": 0,
        "nm": "泣血旅馆",
        "comingTitle": "4月26日 周五"
    }, {
        "id": 1238926,
        "img": "http://p0.meituan.net/w.h/movie/52ae64ddccfbb483736c19e34a9765ec14851483.jpg",
        "wish": 4552,
        "wishst": 0,
        "nm": "我们的爱情",
        "comingTitle": "3月8日 周五"
    }, {
        "id": 1206939,
        "img": "http://p0.meituan.net/w.h/movie/76cb2641eff79e28f6a6f973e30fb3612249245.jpg",
        "wish": 4536,
        "wishst": 0,
        "nm": "守灵",
        "comingTitle": "4月4日 周四"
    }, {
        "id": 1234116,
        "img": "http://p0.meituan.net/w.h/movie/e9dea303408b510f68c1fb7b2c1b4eec5174288.jpg",
        "wish": 4208,
        "wishst": 0,
        "nm": "猫公主苏菲",
        "comingTitle": "4月5日 周五"
    }, {
        "id": 343987,
        "img": "http://p1.meituan.net/w.h/movie/e49ccb1b58c7514579a4a51d69c72ae2902777.jpg",
        "wish": 4043,
        "wishst": 0,
        "nm": "精灵怪物：疯狂之旅",
        "comingTitle": "3月29日 周五"
    }, {
        "id": 1239678,
        "img": "http://p0.meituan.net/w.h/movie/b37729cdede9ece28c608f0621ef556029459874.jpg",
        "wish": 3783,
        "wishst": 0,
        "nm": "原来如此",
        "comingTitle": "4月12日 周五"
    }, {
        "id": 341220,
        "img": "http://p0.meituan.net/w.h/movie/4d47b045a3f62bbccf94cb48ad5cbc64303329.jpg",
        "wish": 3740,
        "wishst": 0,
        "nm": "乐高大电影2",
        "comingTitle": "3月22日 周五"
    }, {
        "id": 1228787,
        "img": "http://p1.meituan.net/w.h/movie/b0533bac4ad347510153c7636b694da6340991.jpg",
        "wish": 2274,
        "wishst": 0,
        "nm": "阴风阵阵",
        "comingTitle": "4月4日 周四"
    }, {
        "id": 1228761,
        "img": "http://p0.meituan.net/w.h/movie/ddf31a611c5d2e00e0bd4caf7671db983027880.jpg",
        "wish": 2223,
        "wishst": 0,
        "nm": "把哥哥退货可以吗",
        "comingTitle": "3月22日 周五"
    }],
    "paging": {
        "hasMore": true,
        "limit": 10,
        "offset": 10,
        "total": 56
    }
}